{
  "name": "RPA-20_StatementFileExport_Dispatcher",
  "description": "Sends a list of db(tenants) to a queue",
  "main": "Main.xaml",
  "dependencies": {
    "UiPath.Database.Activities": "[1.7.1]",
    "UiPath.Excel.Activities": "[2.8.6]",
    "UiPath.Mail.Activities": "[1.8.6]",
    "UiPath.System.Activities": "[20.4.4]",
    "UiPath.UIAutomation.Activities": "[20.4.3]"
  },
  "webServices": [],
  "entitiesStores": [],
  "schemaVersion": "4.0",
  "studioVersion": "20.4.4.0",
  "projectVersion": "1.0.8",
  "runtimeOptions": {
    "autoDispose": false,
    "netFrameworkLazyLoading": false,
    "isPausable": true,
    "isAttended": false,
    "requiresUserInteraction": true,
    "supportsPersistence": false,
    "excludedLoggedData": [
      "Private:*",
      "*password*"
    ],
    "executionType": "Workflow",
    "readyForPiP": false,
    "startsInPiP": false,
    "mustRestoreAllDependencies": false,
    "pipType": "ChildSession"
  },
  "designOptions": {
    "projectProfile": "Developement",
    "outputType": "Process",
    "libraryOptions": {
      "includeOriginalXaml": false,
      "privateWorkflows": []
    },
    "processOptions": {
      "ignoredFiles": []
    },
    "fileInfoCollection": [],
    "modernBehavior": false
  },
  "arguments": {
    "input": [],
    "output": []
  },
  "expressionLanguage": "VisualBasic",
  "entryPoints": [
    {
      "filePath": "Main.xaml",
      "uniqueId": "85d4fb4a-f54f-4874-ae24-b280a99f2632",
      "input": [],
      "output": []
    }
  ],
  "isTemplate": false,
  "templateProjectData": {},
  "publishData": {},
  "targetFramework": "Legacy"
}